{
  "images" : [
    {
      "idiom" : "iphone",
      "size" : "29x29",
      "scale" : "1x"
    },
    {
      "idiom" : "iphone",
      "size" : "29x29",
      "scale" : "2x"
    },
    {
      "idiom" : "iphone",
      "size" : "29x29",
      "scale" : "3x"
    },
    {
      "idiom" : "iphone",
      "size" : "40x40",
      "scale" : "2x"
    },
    {
      "size" : "40x40",
      "idiom" : "iphone",
      "filename" : "Icon-Spotlight-iPhone-6.png",
      "scale" : "3x"
    },
    {
      "idiom" : "iphone",
      "size" : "57x57",
      "scale" : "1x"
    },
    {
      "idiom" : "iphone",
      "size" : "57x57",
      "scale" : "2x"
    },
    {
      "size" : "60x60",
      "idiom" : "iphone",
      "filename" : "Icon-App@2x.png",
      "scale" : "2x"
    },
    {
      "size" : "60x60",
      "idiom" : "iphone",
      "filename" : "Icon-App@3x.png",
      "scale" : "3x"
    },
    {
      "size" : "29x29",
      "idiom" : "ipad",
      "filename" : "Icon-Settings.png",
      "scale" : "1x"
    },
    {
      "idiom" : "ipad",
      "size" : "29x29",
      "scale" : "2x"
    },
    {
      "idiom" : "ipad",
      "size" : "40x40",
      "scale" : "1x"
    },
    {
      "size" : "40x40",
      "idiom" : "ipad",
      "filename" : "Icon-Spotlight-iPhone-4-5.png",
      "scale" : "2x"
    },
    {
      "idiom" : "ipad",
      "size" : "50x50",
      "scale" : "1x"
    },
    {
      "idiom" : "ipad",
      "size" : "50x50",
      "scale" : "2x"
    },
    {
      "idiom" : "ipad",
      "size" : "72x72",
      "scale" : "1x"
    },
    {
      "idiom" : "ipad",
      "size" : "72x72",
      "scale" : "2x"
    },
    {
      "size" : "76x76",
      "idiom" : "ipad",
      "filename" : "Icon-App-iPad.png",
      "scale" : "1x"
    },
    {
      "size" : "76x76",
      "idiom" : "ipad",
      "filename" : "Icon-App-iPad@2x.png",
      "scale" : "2x"
    },
    {
      "idiom" : "car",
      "size" : "120x120",
      "scale" : "1x"
    },
    {
      "size" : "24x24",
      "idiom" : "watch",
      "scale" : "2x",
      "role" : "notificationCenter",
      "subtype" : "38mm"
    },
    {
      "size" : "27.5x27.5",
      "idiom" : "watch",
      "scale" : "2x",
      "role" : "notificationCenter",
      "subtype" : "42mm"
    },
    {
      "size" : "29x29",
      "idiom" : "watch",
      "filename" : "Icon-Settings@2x.png",
      "role" : "companionSettings",
      "scale" : "2x"
    },
    {
      "size" : "29x29",
      "idiom" : "watch",
      "filename" : "Icon-Settings@3x.png",
      "role" : "companionSettings",
      "scale" : "3x"
    },
    {
      "size" : "40x40",
      "idiom" : "watch",
      "scale" : "2x",
      "role" : "appLauncher",
      "subtype" : "38mm"
    },
    {
      "size" : "44x44",
      "idiom" : "watch",
      "scale" : "2x",
      "role" : "longLook",
      "subtype" : "42mm"
    },
    {
      "size" : "86x86",
      "idiom" : "watch",
      "scale" : "2x",
      "role" : "quickLook",
      "subtype" : "38mm"
    },
    {
      "size" : "98x98",
      "idiom" : "watch",
      "scale" : "2x",
      "role" : "quickLook",
      "subtype" : "42mm"
    },
    {
      "size" : "60x60",
      "idiom" : "iphone",
      "filename" : "Icon-Spotlight@2x.png",
      "unassigned" : true,
      "scale" : "2x"
    },
    {
      "size" : "60x60",
      "idiom" : "iphone",
      "filename" : "Icon-Web-App@2x.png",
      "unassigned" : true,
      "scale" : "2x"
    },
    {
      "size" : "60x60",
      "idiom" : "iphone",
      "filename" : "Icon-Spotlight@3x.png",
      "unassigned" : true,
      "scale" : "3x"
    },
    {
      "size" : "60x60",
      "idiom" : "iphone",
      "filename" : "Icon-Web-App@3x.png",
      "unassigned" : true,
      "scale" : "3x"
    },
    {
      "size" : "76x76",
      "idiom" : "ipad",
      "filename" : "Icon-App.png",
      "unassigned" : true,
      "scale" : "1x"
    },
    {
      "size" : "76x76",
      "idiom" : "ipad",
      "filename" : "Icon-Web-App-iPad.png",
      "unassigned" : true,
      "scale" : "1x"
    },
    {
      "size" : "76x76",
      "idiom" : "ipad",
      "filename" : "Icon-Web-App.png",
      "unassigned" : true,
      "scale" : "1x"
    },
    {
      "size" : "76x76",
      "idiom" : "ipad",
      "filename" : "Icon-Web-App-iPad@2x.png",
      "unassigned" : true,
      "scale" : "2x"
    }
  ],
  "info" : {
    "version" : 1,
    "author" : "xcode"
  }
}